{"success":true,"data":[{"id":"68a9665b-cdf1-45a9-8d94-73ee433f7e8e","name":"teacher1-Management","requestType":"Early Leave","duration":"23 July 2025","appliedDate":"2025-07-21","reason":"Medical appointment","result":"","createdAt":"2025-07-20T18:25:04.179Z","updatedAt":"2025-07-20T18:25:04.180Z","teacher":null,"typeInfo":null},{"id":"d89c2979-0845-4e4d-aa7f-ad3931f9e058","name":"teacher1-Management","requestType":"Early Leave","duration":"30 July 2025","appliedDate":"2025-07-28","reason":"Personal matters","result":"","createdAt":"2025-07-20T18:25:04.180Z","updatedAt":"2025-07-20T18:25:04.180Z","teacher":null,"typeInfo":null},{"id":"9f98d212-3600-4dc8-9f8e-9f2121fd61f2","name":"teacher1-Management","requestType":"Absence","duration":"25 July - 25 July 2025","appliedDate":"2025-07-23","reason":"Family emergency","result":"","createdAt":"2025-07-20T18:25:04.180Z","updatedAt":"2025-07-20T18:25:04.180Z","teacher":null,"typeInfo":null},{"id":"c7b624de-eac2-41d5-bb10-10a279498734","name":"teacher2-Management","requestType":"Early Leave","duration":"22 July 2025","appliedDate":"2025-07-20","reason":"Bank appointment","result":"","createdAt":"2025-07-20T18:25:04.180Z","updatedAt":"2025-07-20T18:25:04.180Z","teacher":null,"typeInfo":null},{"id":"5210020c-a167-4859-8693-3c7d70fa5764","name":"teacher1-Quran","requestType":"Early Leave","duration":"21 July 2025","appliedDate":"2025-07-19","reason":"Doctor visit","result":"","createdAt":"2025-07-20T18:25:04.180Z","updatedAt":"2025-07-20T18:25:04.180Z","teacher":null,"typeInfo":null},{"id":"5c76b8c0-1811-42e0-a472-6498bfcf0fb6","name":"teacher1-Quran","requestType":"Early Leave","duration":"26 July 2025","appliedDate":"2025-07-24","reason":"Child school meeting","result":"","createdAt":"2025-07-20T18:25:04.180Z","updatedAt":"2025-07-20T18:25:04.180Z","teacher":null,"typeInfo":null},{"id":"f1754d73-e2ad-428e-a6c4-25ad4fd5bcf9","name":"teacher1-Quran","requestType":"Early Leave","duration":"31 July 2025","appliedDate":"2025-07-29","reason":"Personal errands","result":"","createdAt":"2025-07-20T18:25:04.180Z","updatedAt":"2025-07-20T18:25:04.180Z","teacher":null,"typeInfo":null},{"id":"1e211c94-ef34-45dd-983f-f430c0b76072","name":"teacher1-Quran","requestType":"Absence","duration":"28 July - 28 July 2025","appliedDate":"2025-07-26","reason":"Religious obligations","result":"","createdAt":"2025-07-20T18:25:04.180Z","updatedAt":"2025-07-20T18:25:04.180Z","teacher":null,"typeInfo":null},{"id":"128219a8-5acc-427b-8a89-7d86db66ea20","name":"teacher2-Quran","requestType":"Early Leave","duration":"24 July 2025","appliedDate":"2025-07-22","reason":"Dental appointment","result":"","createdAt":"2025-07-20T18:25:04.180Z","updatedAt":"2025-07-20T18:25:04.180Z","teacher":null,"typeInfo":null},{"id":"b7c1d45d-7539-4308-8d07-20b8adbb506c","name":"teacher2-Quran","requestType":"Early Leave","duration":"29 July 2025","appliedDate":"2025-07-27","reason":"Family visit","result":"","createdAt":"2025-07-20T18:25:04.180Z","updatedAt":"2025-07-20T18:25:04.180Z","teacher":null,"typeInfo":null},{"id":"1b4ce35a-611b-427a-a26c-e5be5ff5d2de","name":"teacher2-Quran","requestType":"Absence","duration":"30 July - 30 July 2025","appliedDate":"2025-07-28","reason":"Sick leave","result":"","createdAt":"2025-07-20T18:25:04.180Z","updatedAt":"2025-07-20T18:25:04.180Z","teacher":null,"typeInfo":null},{"id":"c2b7337a-ee51-4065-8114-68995aee3f2d","name":"teacher1-Arabic","requestType":"Early Leave","duration":"22 July 2025","appliedDate":"2025-06-18","reason":"Government office visit","result":"","createdAt":"2025-07-20T18:25:04.180Z","updatedAt":"2025-07-20T18:25:04.180Z","teacher":null,"typeInfo":null},{"id":"561a338d-9de8-4a7a-9522-1a5474279e40","name":"teacher1-Arabic","requestType":"Early Leave","duration":"25 July 2025","appliedDate":"2025-06-15","reason":"Car maintenance","result":"","createdAt":"2025-07-20T18:25:04.180Z","updatedAt":"2025-07-20T18:25:04.180Z","teacher":null,"typeInfo":null},{"id":"39dc255f-77f1-40e8-8a6a-0824775c179a","name":"teacher1-Arabic","requestType":"Early Leave","duration":"28 July 2025","appliedDate":"2025-06-20","reason":"Personal appointment","result":"","createdAt":"2025-07-20T18:25:04.180Z","updatedAt":"2025-07-20T18:25:04.180Z","teacher":null,"typeInfo":null},{"id":"071fff71-517b-412e-bb8d-56510b59644d","name":"teacher1-Arabic","requestType":"Early Leave","duration":"31 July 2025","appliedDate":"2025-06-25","reason":"Home repair service","result":"","createdAt":"2025-07-20T18:25:04.180Z","updatedAt":"2025-07-20T18:25:04.180Z","teacher":null,"typeInfo":null},{"id":"bd9aac0b-573b-4306-9f38-0645590d62aa","name":"teacher2-Arabic","requestType":"Early Leave","duration":"27 July 2025","appliedDate":"2025-07-20","reason":"Medical checkup","result":"","createdAt":"2025-07-20T18:25:04.180Z","updatedAt":"2025-07-20T18:25:04.180Z","teacher":null,"typeInfo":null},{"id":"d495478c-f1bf-4c45-aa77-64f0ab31d4b5","name":"teacher1-Math","requestType":"Early Leave","duration":"21 July 2025","appliedDate":"2025-05-05","reason":"University meeting","result":"","createdAt":"2025-07-20T18:25:04.180Z","updatedAt":"2025-07-20T18:25:04.180Z","teacher":null,"typeInfo":null},{"id":"41684685-433d-44a1-8eec-1d89a86ebc50","name":"teacher1-Math","requestType":"Early Leave","duration":"23 July 2025","appliedDate":"2025-05-10","reason":"Legal consultation","result":"","createdAt":"2025-07-20T18:25:04.180Z","updatedAt":"2025-07-20T18:25:04.180Z","teacher":null,"typeInfo":null},{"id":"70911db7-38a0-441f-95e9-86e7054696e9","name":"teacher1-Math","requestType":"Early Leave","duration":"26 July 2025","appliedDate":"2025-05-15","reason":"Property viewing","result":"","createdAt":"2025-07-20T18:25:04.180Z","updatedAt":"2025-07-20T18:25:04.180Z","teacher":null,"typeInfo":null},{"id":"2a7f30b2-6908-41ce-8053-6814c637f7ff","name":"teacher1-Math","requestType":"Early Leave","duration":"29 July 2025","appliedDate":"2025-05-20","reason":"Insurance matters","result":"","createdAt":"2025-07-20T18:25:04.180Z","updatedAt":"2025-07-20T18:25:04.180Z","teacher":null,"typeInfo":null}],"pagination":{"total":100,"page":1,"limit":20,"pages":5},"message":"Retrieved 20 requests"}