{"success":true,"data":[{"id":"8af56ece-e822-4d04-b226-3714bfed65fe","name":"teacher1-Management","requestType":"Early Leave","duration":"23 July 2025","appliedDate":"2025-07-21","reason":"Medical appointment","result":"","createdAt":"2025-07-20T18:43:57.509Z","updatedAt":"2025-07-20T18:43:57.510Z","teacher":null,"typeInfo":null},{"id":"bf0dd61b-623f-4c85-9575-cc75c0fec894","name":"teacher1-Management","requestType":"Early Leave","duration":"30 July 2025","appliedDate":"2025-07-28","reason":"Personal matters","result":"","createdAt":"2025-07-20T18:43:57.510Z","updatedAt":"2025-07-20T18:43:57.510Z","teacher":null,"typeInfo":null},{"id":"469580f7-762f-4e50-ad80-f82e261ae71d","name":"teacher1-Management","requestType":"Absence","duration":"25 July 2025","appliedDate":"2025-07-23","reason":"Family emergency","result":"","createdAt":"2025-07-20T18:43:57.510Z","updatedAt":"2025-07-20T18:43:57.510Z","teacher":null,"typeInfo":null},{"id":"0d0c623c-06be-45de-b2aa-948fcabbdfa1","name":"teacher2-Management","requestType":"Early Leave","duration":"22 July 2025","appliedDate":"2025-07-20","reason":"Bank appointment","result":"","createdAt":"2025-07-20T18:43:57.510Z","updatedAt":"2025-07-20T18:43:57.510Z","teacher":null,"typeInfo":null},{"id":"5213c242-436b-4d89-92e1-e23829b2fbec","name":"teacher1-Quran","requestType":"Early Leave","duration":"21 July 2025","appliedDate":"2025-07-19","reason":"Doctor visit","result":"","createdAt":"2025-07-20T18:43:57.510Z","updatedAt":"2025-07-20T18:43:57.510Z","teacher":null,"typeInfo":null},{"id":"37791b6f-a78b-4750-bb94-5ac492b108bd","name":"teacher1-Quran","requestType":"Early Leave","duration":"26 July 2025","appliedDate":"2025-07-24","reason":"Child school meeting","result":"","createdAt":"2025-07-20T18:43:57.510Z","updatedAt":"2025-07-20T18:43:57.510Z","teacher":null,"typeInfo":null},{"id":"8e72e6d8-2dd0-4262-ac03-b04a7dc6768c","name":"teacher1-Quran","requestType":"Early Leave","duration":"31 July 2025","appliedDate":"2025-07-29","reason":"Personal errands","result":"","createdAt":"2025-07-20T18:43:57.510Z","updatedAt":"2025-07-20T18:43:57.510Z","teacher":null,"typeInfo":null},{"id":"1a3ea57e-3204-4d68-b2f2-bc4db948ed88","name":"teacher1-Quran","requestType":"Absence","duration":"28 July 2025","appliedDate":"2025-07-26","reason":"Religious obligations","result":"","createdAt":"2025-07-20T18:43:57.510Z","updatedAt":"2025-07-20T18:43:57.510Z","teacher":null,"typeInfo":null},{"id":"a7c067b3-0105-4fea-9bb3-38c2476e3cc5","name":"teacher2-Quran","requestType":"Early Leave","duration":"24 July 2025","appliedDate":"2025-07-22","reason":"Dental appointment","result":"","createdAt":"2025-07-20T18:43:57.510Z","updatedAt":"2025-07-20T18:43:57.510Z","teacher":null,"typeInfo":null},{"id":"fbe3dd7c-10f6-4d4e-b2e8-dbc628043cde","name":"teacher2-Quran","requestType":"Early Leave","duration":"29 July 2025","appliedDate":"2025-07-27","reason":"Family visit","result":"","createdAt":"2025-07-20T18:43:57.511Z","updatedAt":"2025-07-20T18:43:57.511Z","teacher":null,"typeInfo":null},{"id":"63cc4055-d7c9-4e1e-ace8-cd4fa7ae566f","name":"teacher2-Quran","requestType":"Absence","duration":"30 July 2025","appliedDate":"2025-07-28","reason":"Sick leave","result":"","createdAt":"2025-07-20T18:43:57.511Z","updatedAt":"2025-07-20T18:43:57.511Z","teacher":null,"typeInfo":null},{"id":"08ace3ed-d461-453a-a663-cbc4bd028f4a","name":"teacher1-Arabic","requestType":"Early Leave","duration":"22 July 2025","appliedDate":"2025-06-18","reason":"Government office visit","result":"","createdAt":"2025-07-20T18:43:57.511Z","updatedAt":"2025-07-20T18:43:57.511Z","teacher":null,"typeInfo":null},{"id":"faf43881-bf24-455b-aefc-6f9091e09b3c","name":"teacher1-Arabic","requestType":"Early Leave","duration":"25 July 2025","appliedDate":"2025-06-15","reason":"Car maintenance","result":"","createdAt":"2025-07-20T18:43:57.511Z","updatedAt":"2025-07-20T18:43:57.511Z","teacher":null,"typeInfo":null},{"id":"12f94968-4cca-49e3-b319-d70d0d321a42","name":"teacher1-Arabic","requestType":"Early Leave","duration":"28 July 2025","appliedDate":"2025-06-20","reason":"Personal appointment","result":"","createdAt":"2025-07-20T18:43:57.511Z","updatedAt":"2025-07-20T18:43:57.511Z","teacher":null,"typeInfo":null},{"id":"042ace15-786d-4c8d-8b5f-b570e10e96f8","name":"teacher1-Arabic","requestType":"Early Leave","duration":"31 July 2025","appliedDate":"2025-06-25","reason":"Home repair service","result":"","createdAt":"2025-07-20T18:43:57.511Z","updatedAt":"2025-07-20T18:43:57.511Z","teacher":null,"typeInfo":null},{"id":"491a47eb-f7e4-4ea4-868b-7d35c635688c","name":"teacher2-Arabic","requestType":"Early Leave","duration":"27 July 2025","appliedDate":"2025-07-20","reason":"Medical checkup","result":"","createdAt":"2025-07-20T18:43:57.511Z","updatedAt":"2025-07-20T18:43:57.511Z","teacher":null,"typeInfo":null},{"id":"75d73a7e-7e83-4bfe-927f-af8880fd02d2","name":"teacher1-Math","requestType":"Early Leave","duration":"21 July 2025","appliedDate":"2025-05-05","reason":"University meeting","result":"","createdAt":"2025-07-20T18:43:57.511Z","updatedAt":"2025-07-20T18:43:57.511Z","teacher":null,"typeInfo":null},{"id":"464f97fc-a486-46b5-bb63-628e046bc05c","name":"teacher1-Math","requestType":"Early Leave","duration":"23 July 2025","appliedDate":"2025-05-10","reason":"Legal consultation","result":"","createdAt":"2025-07-20T18:43:57.511Z","updatedAt":"2025-07-20T18:43:57.511Z","teacher":null,"typeInfo":null},{"id":"683ee1cb-98f8-4e81-b20d-442e01451bfb","name":"teacher1-Math","requestType":"Early Leave","duration":"26 July 2025","appliedDate":"2025-05-15","reason":"Property viewing","result":"","createdAt":"2025-07-20T18:43:57.511Z","updatedAt":"2025-07-20T18:43:57.511Z","teacher":null,"typeInfo":null},{"id":"31ec9b73-f79a-4add-b71c-915a6a29da26","name":"teacher1-Math","requestType":"Early Leave","duration":"29 July 2025","appliedDate":"2025-05-20","reason":"Insurance matters","result":"","createdAt":"2025-07-20T18:43:57.511Z","updatedAt":"2025-07-20T18:43:57.511Z","teacher":null,"typeInfo":null}],"pagination":{"total":100,"page":1,"limit":20,"pages":5},"message":"Retrieved 20 requests"}